^C:\Gitlocal\jlavoie\MixGenius\3rd\Steinberg\vstsdk\v2.4\public.sdk\samples\vst2.x\again\win\again.vcxproj
C:\Gitlocal\jlavoie\MixGenius\3rd\Steinberg\vstsdk\v2.4\public.sdk\samples\vst2.x\win\Release\again.lib
C:\Gitlocal\jlavoie\MixGenius\3rd\Steinberg\vstsdk\v2.4\public.sdk\samples\vst2.x\win\Release\again.lib
C:\Gitlocal\jlavoie\MixGenius\3rd\Steinberg\vstsdk\v2.4\public.sdk\samples\vst2.x\win\Release\again.exp
C:\Gitlocal\jlavoie\MixGenius\3rd\Steinberg\vstsdk\v2.4\public.sdk\samples\vst2.x\win\Release\again.exp
