^C:\GITLOCAL\JLAVOIE\MIXGENIUS\3RD\STEINBERG\VSTSDK\V2.4\PUBLIC.SDK\SAMPLES\VST2.X\AGAIN\WIN\RELEASE\AGAIN.OBJ|C:\GITLOCAL\JLAVOIE\MIXGENIUS\3RD\STEINBERG\VSTSDK\V2.4\PUBLIC.SDK\SAMPLES\VST2.X\AGAIN\WIN\RELEASE\AUDIOEFFECT.OBJ|C:\GITLOCAL\JLAVOIE\MIXGENIUS\3RD\STEINBERG\VSTSDK\V2.4\PUBLIC.SDK\SAMPLES\VST2.X\AGAIN\WIN\RELEASE\AUDIOEFFECTX.OBJ|C:\GITLOCAL\JLAVOIE\MIXGENIUS\3RD\STEINBERG\VSTSDK\V2.4\PUBLIC.SDK\SAMPLES\VST2.X\AGAIN\WIN\RELEASE\VSTPLUGMAIN.OBJ
C:\GITLOCAL\JLAVOIE\MIXGENIUS\3RD\STEINBERG\VSTSDK\V2.4\PUBLIC.SDK\SAMPLES\VST2.X\WIN\RELEASE\AGAIN.DLL
C:\GITLOCAL\JLAVOIE\MIXGENIUS\3RD\STEINBERG\VSTSDK\V2.4\PUBLIC.SDK\SAMPLES\VST2.X\WIN\RELEASE\AGAIN.PDB
