^C:\GITLOCAL\JLAVOIE\MIXGENIUS\3RD\STEINBERG\VSTSDK\V2.4\PUBLIC.SDK\SAMPLES\VST2.X\AGAIN\SOURCE\AGAIN.CPP
/c /I../../../../.. /ZI /nologo /W3 /WX- /Od /Oy- /D WIN32 /D _DEBUG /D _WINDOWS /D _USRDLL /D AGAIN_EXPORTS /D _CRT_SECURE_NO_DEPRECATE=1 /D _WINDLL /Gm /EHsc /RTC1 /MTd /GS /fp:precise /Zc:wchar_t /Zc:forScope /Fo"DEBUG\\" /Fd"DEBUG\VC110.PDB" /Gd /TP /analyze- C:\GITLOCAL\JLAVOIE\MIXGENIUS\3RD\STEINBERG\VSTSDK\V2.4\PUBLIC.SDK\SAMPLES\VST2.X\AGAIN\SOURCE\AGAIN.CPP
^C:\GITLOCAL\JLAVOIE\MIXGENIUS\3RD\STEINBERG\VSTSDK\V2.4\PUBLIC.SDK\SOURCE\VST2.X\AUDIOEFFECT.CPP
/c /I../../../../.. /ZI /nologo /W3 /WX- /Od /Oy- /D WIN32 /D _DEBUG /D _WINDOWS /D _USRDLL /D AGAIN_EXPORTS /D _CRT_SECURE_NO_DEPRECATE=1 /D _WINDLL /Gm /EHsc /RTC1 /MTd /GS /fp:precise /Zc:wchar_t /Zc:forScope /Fo"DEBUG\\" /Fd"DEBUG\VC110.PDB" /Gd /TP /analyze- C:\GITLOCAL\JLAVOIE\MIXGENIUS\3RD\STEINBERG\VSTSDK\V2.4\PUBLIC.SDK\SOURCE\VST2.X\AUDIOEFFECT.CPP
^C:\GITLOCAL\JLAVOIE\MIXGENIUS\3RD\STEINBERG\VSTSDK\V2.4\PUBLIC.SDK\SOURCE\VST2.X\AUDIOEFFECTX.CPP
/c /I../../../../.. /ZI /nologo /W3 /WX- /Od /Oy- /D WIN32 /D _DEBUG /D _WINDOWS /D _USRDLL /D AGAIN_EXPORTS /D _CRT_SECURE_NO_DEPRECATE=1 /D _WINDLL /Gm /EHsc /RTC1 /MTd /GS /fp:precise /Zc:wchar_t /Zc:forScope /Fo"DEBUG\\" /Fd"DEBUG\VC110.PDB" /Gd /TP /analyze- C:\GITLOCAL\JLAVOIE\MIXGENIUS\3RD\STEINBERG\VSTSDK\V2.4\PUBLIC.SDK\SOURCE\VST2.X\AUDIOEFFECTX.CPP
^C:\GITLOCAL\JLAVOIE\MIXGENIUS\3RD\STEINBERG\VSTSDK\V2.4\PUBLIC.SDK\SOURCE\VST2.X\VSTPLUGMAIN.CPP
/c /I../../../../.. /ZI /nologo /W3 /WX- /Od /Oy- /D WIN32 /D _DEBUG /D _WINDOWS /D _USRDLL /D AGAIN_EXPORTS /D _CRT_SECURE_NO_DEPRECATE=1 /D _WINDLL /Gm /EHsc /RTC1 /MTd /GS /fp:precise /Zc:wchar_t /Zc:forScope /Fo"DEBUG\\" /Fd"DEBUG\VC110.PDB" /Gd /TP /analyze- C:\GITLOCAL\JLAVOIE\MIXGENIUS\3RD\STEINBERG\VSTSDK\V2.4\PUBLIC.SDK\SOURCE\VST2.X\VSTPLUGMAIN.CPP
