^C:\GITLOCAL\JLAVOIE\MIXGENIUS\3RD\STEINBERG\VSTSDK\V2.4\PUBLIC.SDK\SAMPLES\VST2.X\AGAIN\WIN\DEBUG\AGAIN.OBJ|C:\GITLOCAL\JLAVOIE\MIXGENIUS\3RD\STEINBERG\VSTSDK\V2.4\PUBLIC.SDK\SAMPLES\VST2.X\AGAIN\WIN\DEBUG\AUDIOEFFECT.OBJ|C:\GITLOCAL\JLAVOIE\MIXGENIUS\3RD\STEINBERG\VSTSDK\V2.4\PUBLIC.SDK\SAMPLES\VST2.X\AGAIN\WIN\DEBUG\AUDIOEFFECTX.OBJ|C:\GITLOCAL\JLAVOIE\MIXGENIUS\3RD\STEINBERG\VSTSDK\V2.4\PUBLIC.SDK\SAMPLES\VST2.X\AGAIN\WIN\DEBUG\VSTPLUGMAIN.OBJ
C:\PROGRAM FILES (X86)\WINDOWS KITS\8.0\LIB\WIN8\UM\X86\KERNEL32.LIB
C:\PROGRAM FILES (X86)\WINDOWS KITS\8.0\LIB\WIN8\UM\X86\USER32.LIB
C:\PROGRAM FILES (X86)\WINDOWS KITS\8.0\LIB\WIN8\UM\X86\GDI32.LIB
C:\PROGRAM FILES (X86)\WINDOWS KITS\8.0\LIB\WIN8\UM\X86\WINSPOOL.LIB
C:\PROGRAM FILES (X86)\WINDOWS KITS\8.0\LIB\WIN8\UM\X86\COMDLG32.LIB
C:\PROGRAM FILES (X86)\WINDOWS KITS\8.0\LIB\WIN8\UM\X86\ADVAPI32.LIB
C:\PROGRAM FILES (X86)\WINDOWS KITS\8.0\LIB\WIN8\UM\X86\SHELL32.LIB
C:\PROGRAM FILES (X86)\WINDOWS KITS\8.0\LIB\WIN8\UM\X86\OLE32.LIB
C:\PROGRAM FILES (X86)\WINDOWS KITS\8.0\LIB\WIN8\UM\X86\OLEAUT32.LIB
C:\PROGRAM FILES (X86)\WINDOWS KITS\8.0\LIB\WIN8\UM\X86\UUID.LIB
C:\PROGRAM FILES (X86)\WINDOWS KITS\8.0\LIB\WIN8\UM\X86\ODBC32.LIB
C:\PROGRAM FILES (X86)\WINDOWS KITS\8.0\LIB\WIN8\UM\X86\ODBCCP32.LIB
C:\GITLOCAL\JLAVOIE\MIXGENIUS\3RD\STEINBERG\VSTSDK\V2.4\PUBLIC.SDK\SAMPLES\VST2.X\AGAIN\WIN\DEBUG\AGAIN.OBJ
C:\GITLOCAL\JLAVOIE\MIXGENIUS\3RD\STEINBERG\VSTSDK\V2.4\PUBLIC.SDK\SAMPLES\VST2.X\AGAIN\WIN\DEBUG\AUDIOEFFECT.OBJ
C:\GITLOCAL\JLAVOIE\MIXGENIUS\3RD\STEINBERG\VSTSDK\V2.4\PUBLIC.SDK\SAMPLES\VST2.X\AGAIN\WIN\DEBUG\AUDIOEFFECTX.OBJ
C:\GITLOCAL\JLAVOIE\MIXGENIUS\3RD\STEINBERG\VSTSDK\V2.4\PUBLIC.SDK\SAMPLES\VST2.X\AGAIN\WIN\DEBUG\VSTPLUGMAIN.OBJ
C:\WINDOWS\GLOBALIZATION\SORTING\SORTDEFAULT.NLS
C:\PROGRAM FILES (X86)\MICROSOFT VISUAL STUDIO 11.0\VC\BIN\1033\LINKUI.DLL
C:\PROGRAM FILES (X86)\MICROSOFT VISUAL STUDIO 11.0\VC\LIB\LIBCMTD.LIB
C:\PROGRAM FILES (X86)\MICROSOFT VISUAL STUDIO 11.0\VC\LIB\OLDNAMES.LIB
C:\GITLOCAL\JLAVOIE\MIXGENIUS\3RD\STEINBERG\VSTSDK\V2.4\PUBLIC.SDK\SAMPLES\VST2.X\WIN\VSTPLUG.DEF
C:\WINDOWS\SYSTEM32\RSAENH.DLL
C:\WINDOWS\SYSTEM32\TZRES.DLL
C:\PROGRAM FILES (X86)\WINDOWS KITS\8.0\BIN\X86\RC.EXE
C:\PROGRAM FILES (X86)\MICROSOFT VISUAL STUDIO 11.0\VC\BIN\CVTRES.EXE
